Cours 4 - Data Visualisation
…
## The following objects are masked from 'package:base':
## 
##     intersect, setdiff, setequal, union

Pour information, dplyr permet de manipuler tous les types de données, mais il a également une structure de donnée propre à lui, c’est le type tibble.

Nous allons reprendre le jeu de données iris qui est de type data frame et nous allons le transformer en tibble pour voir la différence entre les deux types de données.

data.iris=as_tibble(iris)

Si on affiche ce jeu de données voici ce que l’on remarque :

data.iris

## # A tibble: 150 x 5
##    Sepal.Length Sepal.Width Petal.Length Petal.Width Species
##           <dbl>       <dbl>        <dbl>       <dbl> <fct>  
##  1          5.1         3.5          1.4         0.2 setosa 
##  2          4.9         3            1.4         0.2 setosa 
##  3          4.7         3.2          1.3         0.2 setosa 
##  4          4.6         3.1          1.5         0.2 setosa 
##  5          5           3.6          1.4         0.2 setosa 
##  6          5.4         3.9          1.7         0.4 setosa 
##  7          4.6         3.4          1.4         0.3 setosa 
##  8          5           3.4          1.5         0.2 setosa 
##  9          4.4         2.9          1.4         0.2 setosa 
## 10          4.9         3.1          1.5         0.1 setosa 
## # … with 140 more rows

Le head est fait automatiquement pour 10 premières lignes.
Sous chaque colonne, nous avons l’information sur le type de donnée dbl pour double et fctr pour factor.

Select : selectionner les colonnes

Imaginons que l’on souhaite selectionner quelques colonnes.
Comme nous allons toujours utiliser le jeu de données iris, nous allons renommer data.iris (qui est un type tibble) par iris,

iris= data.iris
iris

## # A tibble: 150 x 5
##    Sepal.Length Sepal.Width Petal.Length Petal.Width Species
##           <dbl>       <dbl>        <dbl>       <dbl> <fct>  
##  1          5.1         3.5          1.4         0.2 setosa 
##  2          4.9         3            1.4         0.2 setosa 
##  3          4.7         3.2          1.3         0.2 setosa 
##  4          4.6         3.1          1.5         0.2 setosa 
##  5          5           3.6          1.4         0.2 setosa 
##  6          5.4         3.9          1.7         0.4 setosa 
##  7          4.6         3.4          1.4         0.3 setosa 
##  8          5           3.4          1.5         0.2 setosa 
##  9          4.4         2.9          1.4         0.2 setosa 
## 10          4.9         3.1          1.5         0.1 setosa 
## # … with 140 more rows

comme nous pouvons le constater la classe de iris maintenant est tibble.

class(iris)

## [1] "tbl_df"     "tbl"        "data.frame"

Si l’on souhaite selection que les colonne contenant les informations sur les Sépales avec le types de fleux “Species”, il suffit pour cela de les indiquer dans la fonction select.

select(iris, Sepal.Length, Sepal.Width, Species)

## # A tibble: 150 x 3
##    Sepal.Length Sepal.Width Species
##           <dbl>       <dbl> <fct>  
##  1          5.1         3.5 setosa 
##  2          4.9         3   setosa 
##  3          4.7         3.2 setosa 
##  4          4.6         3.1 setosa 
##  5          5           3.6 setosa 
##  6          5.4         3.9 setosa 
##  7          4.6         3.4 setosa 
##  8          5           3.4 setosa 
##  9          4.4         2.9 setosa 
## 10          4.9         3.1 setosa 
## # … with 140 more rows

Autre façon de faire, est de selectionner un enseble de colonnes en indiquant la première et la dernière avec les :

select(iris, Sepal.Length :Petal.Length)

## # A tibble: 150 x 3
##    Sepal.Length Sepal.Width Petal.Length
##           <dbl>       <dbl>        <dbl>
##  1          5.1         3.5          1.4
##  2          4.9         3            1.4
##  3          4.7         3.2          1.3
##  4          4.6         3.1          1.5
##  5          5           3.6          1.4
##  6          5.4         3.9          1.7
##  7          4.6         3.4          1.4
##  8          5           3.4          1.5
##  9          4.4         2.9          1.4
## 10          4.9         3.1          1.5
## # … with 140 more rows

Comme nous l’avions vu précédemment, si on veut faire des stat sur des valeurs quantitatives, il est préférable de supprimer les colonnes qualitatives.
Rien d’aussi simple avec select, il suffut de mettre un - avant le nom de la colonne.

select(iris, -Species)

## # A tibble: 150 x 4
##    Sepal.Length Sepal.Width Petal.Length Petal.Width
##           <dbl>       <dbl>        <dbl>       <dbl>
##  1          5.1         3.5          1.4         0.2
##  2          4.9         3            1.4         0.2
##  3          4.7         3.2          1.3         0.2
##  4          4.6         3.1          1.5         0.2
##  5          5           3.6          1.4         0.2
##  6          5.4         3.9          1.7         0.4
##  7          4.6         3.4          1.4         0.3
##  8          5           3.4          1.5         0.2
##  9          4.4         2.9          1.4         0.2
## 10          4.9         3.1          1.5         0.1
## # … with 140 more rows

Si l’on souhaite selectionner des colonnes qui commencent par exemple avec le mot “Sepal”

select(iris, starts_with("Sepal"))

## # A tibble: 150 x 2
##    Sepal.Length Sepal.Width
##           <dbl>       <dbl>
##  1          5.1         3.5
##  2          4.9         3  
##  3          4.7         3.2
##  4          4.6         3.1
##  5          5           3.6
##  6          5.4         3.9
##  7          4.6         3.4
##  8          5           3.4
##  9          4.4         2.9
## 10          4.9         3.1
## # … with 140 more rows

Maintenant, les colonnes qui se terminent avec la chaine de caractère “Width”

select(iris, ends_with("Width"))

## # A tibble: 150 x 2
##    Sepal.Width Petal.Width
##          <dbl>       <dbl>
##  1         3.5         0.2
##  2         3           0.2
##  3         3.2         0.2
##  4         3.1         0.2
##  5         3.6         0.2
##  6         3.9         0.4
##  7         3.4         0.3
##  8         3.4         0.2
##  9         2.9         0.2
## 10         3.1         0.1
## # … with 140 more rows

Si l’on souhaite des colonnes qui contiennent une certaine chaine de caractère.

select(iris, contains("al"))

## # A tibble: 150 x 4
##    Sepal.Length Sepal.Width Petal.Length Petal.Width
##           <dbl>       <dbl>        <dbl>       <dbl>
##  1          5.1         3.5          1.4         0.2
##  2          4.9         3            1.4         0.2
##  3          4.7         3.2          1.3         0.2
##  4          4.6         3.1          1.5         0.2
##  5          5           3.6          1.4         0.2
##  6          5.4         3.9          1.7         0.4
##  7          4.6         3.4          1.4         0.3
##  8          5           3.4          1.5         0.2
##  9          4.4         2.9          1.4         0.2
## 10          4.9         3.1          1.5         0.1
## # … with 140 more rows

filter() : filtrer sur les individus.

Dans cette section nous allons explorer filter() avec laquelle nous pouvons filtrer sur les lignes (individus).

Premier exemple concerne un filtre avec des Sepal.length >=5 et Sepal.width >=2

filter(iris, Sepal.Length >=5, Sepal.Width>=2)

## # A tibble: 128 x 5
##    Sepal.Length Sepal.Width Petal.Length Petal.Width Species
##           <dbl>       <dbl>        <dbl>       <dbl> <fct>  
##  1          5.1         3.5          1.4         0.2 setosa 
##  2          5           3.6          1.4         0.2 setosa 
##  3          5.4         3.9          1.7         0.4 setosa 
##  4          5           3.4          1.5         0.2 setosa 
##  5          5.4         3.7          1.5         0.2 setosa 
##  6          5.8         4            1.2         0.2 setosa 
##  7          5.7         4.4          1.5         0.4 setosa 
##  8          5.4         3.9          1.3         0.4 setosa 
##  9          5.1         3.5          1.4         0.3 setosa 
## 10          5.7         3.8          1.7         0.3 setosa 
## # … with 118 more rows

Ici, il m’indique que j’ai bien 128 individus avec le filtre demandé.

Deuxième exemple: c’est avec la fonction between où je suis capable de selectionner des individus qui sont compris entre 2 valeurs.

filter(iris, between(Sepal.Length,4,7))

## # A tibble: 138 x 5
##    Sepal.Length Sepal.Width Petal.Length Petal.Width Species
##           <dbl>       <dbl>        <dbl>       <dbl> <fct>  
##  1          5.1         3.5          1.4         0.2 setosa 
##  2          4.9         3            1.4         0.2 setosa 
##  3          4.7         3.2          1.3         0.2 setosa 
##  4          4.6         3.1          1.5         0.2 setosa 
##  5          5           3.6          1.4         0.2 setosa 
##  6          5.4         3.9          1.7         0.4 setosa 
##  7          4.6         3.4          1.4         0.3 setosa 
##  8          5           3.4          1.5         0.2 setosa 
##  9          4.4         2.9          1.4         0.2 setosa 
## 10          4.9         3.1          1.5         0.1 setosa 
## # … with 128 more rows

Autre façon de l’écrire également

filter(iris, Sepal.Length>=4, Sepal.Length <=7)

## # A tibble: 138 x 5
##    Sepal.Length Sepal.Width Petal.Length Petal.Width Species
##           <dbl>       <dbl>        <dbl>       <dbl> <fct>  
##  1          5.1         3.5          1.4         0.2 setosa 
##  2          4.9         3            1.4         0.2 setosa 
##  3          4.7         3.2          1.3         0.2 setosa 
##  4          4.6         3.1          1.5         0.2 setosa 
##  5          5           3.6          1.4         0.2 setosa 
##  6          5.4         3.9          1.7         0.4 setosa 
##  7          4.6         3.4          1.4         0.3 setosa 
##  8          5           3.4          1.5         0.2 setosa 
##  9          4.4         2.9          1.4         0.2 setosa 
## 10          4.9         3.1          1.5         0.1 setosa 
## # … with 128 more rows

Troisième exemple:
Si l’on souhaite faire un filtre avec le type de données setosa.

filter(iris, Species=="setosa")

## # A tibble: 50 x 5
##    Sepal.Length Sepal.Width Petal.Length Petal.Width Species
##           <dbl>       <dbl>        <dbl>       <dbl> <fct>  
##  1          5.1         3.5          1.4         0.2 setosa 
##  2          4.9         3            1.4         0.2 setosa 
##  3          4.7         3.2          1.3         0.2 setosa 
##  4          4.6         3.1          1.5         0.2 setosa 
##  5          5           3.6          1.4         0.2 setosa 
##  6          5.4         3.9          1.7         0.4 setosa 
##  7          4.6         3.4          1.4         0.3 setosa 
##  8          5           3.4          1.5         0.2 setosa 
##  9          4.4         2.9          1.4         0.2 setosa 
## 10          4.9         3.1          1.5         0.1 setosa 
## # … with 40 more rows

Si au contraire, on ne souhaite pas avoir le type setosa : on utilise l’opérateur différent !=

filter(iris, Species!="setosa")

## # A tibble: 100 x 5
##    Sepal.Length Sepal.Width Petal.Length Petal.Width Species   
##           <dbl>       <dbl>        <dbl>       <dbl> <fct>     
##  1          7           3.2          4.7         1.4 versicolor
##  2          6.4         3.2          4.5         1.5 versicolor
##  3          6.9         3.1          4.9         1.5 versicolor
##  4          5.5         2.3          4           1.3 versicolor
##  5          6.5         2.8          4.6         1.5 versicolor
##  6          5.7         2.8          4.5         1.3 versicolor
##  7          6.3         3.3          4.7         1.6 versicolor
##  8          4.9         2.4          3.3         1   versicolor
##  9          6.6         2.9          4.6         1.3 versicolor
## 10          5.2         2.7          3.9         1.4 versicolor
## # … with 90 more rows

Toujours dans le filtre sur la modalité Species, nous allons retrouver l’opérateur %in% qui permet de selectionner les modalités souhaitées:

filter(iris, Species %in% c("setosa", "virginica"))

## # A tibble: 100 x 5
##    Sepal.Length Sepal.Width Petal.Length Petal.Width Species
##           <dbl>       <dbl>        <dbl>       <dbl> <fct>  
##  1          5.1         3.5          1.4         0.2 setosa 
##  2          4.9         3            1.4         0.2 setosa 
##  3          4.7         3.2          1.3         0.2 setosa 
##  4          4.6         3.1          1.5         0.2 setosa 
##  5          5           3.6          1.4         0.2 setosa 
##  6          5.4         3.9          1.7         0.4 setosa 
##  7          4.6         3.4          1.4         0.3 setosa 
##  8          5           3.4          1.5         0.2 setosa 
##  9          4.4         2.9          1.4         0.2 setosa 
## 10          4.9         3.1          1.5         0.1 setosa 
## # … with 90 more rows

autre façon de l’écrire avec l’opérateur | ou. C’est pour information,

filter(iris, (Species =="setosa" | Species =="virginica"))

## # A tibble: 100 x 5
##    Sepal.Length Sepal.Width Petal.Length Petal.Width Species
##           <dbl>       <dbl>        <dbl>       <dbl> <fct>  
##  1          5.1         3.5          1.4         0.2 setosa 
##  2          4.9         3            1.4         0.2 setosa 
##  3          4.7         3.2          1.3         0.2 setosa 
##  4          4.6         3.1          1.5         0.2 setosa 
##  5          5           3.6          1.4         0.2 setosa 
##  6          5.4         3.9          1.7         0.4 setosa 
##  7          4.6         3.4          1.4         0.3 setosa 
##  8          5           3.4          1.5         0.2 setosa 
##  9          4.4         2.9          1.4         0.2 setosa 
## 10          4.9         3.1          1.5         0.1 setosa 
## # … with 90 more rows

Comme vous avez constaté, si l’on souhaite faire des filtres sur une ou deux colonnes (ou plus) il faut toujours indiquer le nom des variables.
Maintenant si on veut par exemple un filtre non pas sur une ou deux (ou plus de variables) mais bien toutes les variables.
Nous allons donc introduire la fonction filter_all

filter_all(iris[,-5], any_vars(.>4))

## # A tibble: 150 x 4
##    Sepal.Length Sepal.Width Petal.Length Petal.Width
##           <dbl>       <dbl>        <dbl>       <dbl>
##  1          5.1         3.5          1.4         0.2
##  2          4.9         3            1.4         0.2
##  3          4.7         3.2          1.3         0.2
##  4          4.6         3.1          1.5         0.2
##  5          5           3.6          1.4         0.2
##  6          5.4         3.9          1.7         0.4
##  7          4.6         3.4          1.4         0.3
##  8          5           3.4          1.5         0.2
##  9          4.4         2.9          1.4         0.2
## 10          4.9         3.1          1.5         0.1
## # … with 140 more rows

any_var() est l’équivalent de l’opérateur logique ou |.
Reprenons la ligne précédente en utilisant l’opérateur où.

filter(iris, (Sepal.Length >4 |Sepal.Width >4 |Petal.Length>4|Petal.Width >4))

## # A tibble: 150 x 5
##    Sepal.Length Sepal.Width Petal.Length Petal.Width Species
##           <dbl>       <dbl>        <dbl>       <dbl> <fct>  
##  1          5.1         3.5          1.4         0.2 setosa 
##  2          4.9         3            1.4         0.2 setosa 
##  3          4.7         3.2          1.3         0.2 setosa 
##  4          4.6         3.1          1.5         0.2 setosa 
##  5          5           3.6          1.4         0.2 setosa 
##  6          5.4         3.9          1.7         0.4 setosa 
##  7          4.6         3.4          1.4         0.3 setosa 
##  8          5           3.4          1.5         0.2 setosa 
##  9          4.4         2.9          1.4         0.2 setosa 
## 10          4.9         3.1          1.5         0.1 setosa 
## # … with 140 more rows

Maintenant, si l’on veut avoir filtrer sur toutes les variables et selectionner que les individus avec des caractéristiques > 4

filter_all(iris[,-5],all_vars(.>4))

## # A tibble: 0 x 4
## # … with 4 variables: Sepal.Length <dbl>, Sepal.Width <dbl>,
## #   Petal.Length <dbl>, Petal.Width <dbl>

Il n’ y aucun individus avec ces caractérisques. Cherchons dans ce cas des individus avec des modalités >2

filter_all(iris[,-5],all_vars(.>2))

## # A tibble: 23 x 4
##    Sepal.Length Sepal.Width Petal.Length Petal.Width
##           <dbl>       <dbl>        <dbl>       <dbl>
##  1          6.3         3.3          6           2.5
##  2          7.1         3            5.9         2.1
##  3          6.5         3            5.8         2.2
##  4          7.6         3            6.6         2.1
##  5          7.2         3.6          6.1         2.5
##  6          6.8         3            5.5         2.1
##  7          5.8         2.8          5.1         2.4
##  8          6.4         3.2          5.3         2.3
##  9          7.7         3.8          6.7         2.2
## 10          7.7         2.6          6.9         2.3
## # … with 13 more rows

L’opérateur Pipe %>%

C’est une fonction ou verbe super puissant.
Imaginer une locomotive de fonctions (ou verbes dans le langage du créateur du package dplyr) la sortie de la première est l’entrée de la seconde et ainsi de suite jusqu’à la dernière fonction du pipe. Commençons par un exemple simple
Ici, iris %>% indique le jeu de donnée qui est l’entrée de la fonction suivante select.

iris %>%
select(Sepal.Length, Sepal.Width, Species)

## # A tibble: 150 x 3
##    Sepal.Length Sepal.Width Species
##           <dbl>       <dbl> <fct>  
##  1          5.1         3.5 setosa 
##  2          4.9         3   setosa 
##  3          4.7         3.2 setosa 
##  4          4.6         3.1 setosa 
##  5          5           3.6 setosa 
##  6          5.4         3.9 setosa 
##  7          4.6         3.4 setosa 
##  8          5           3.4 setosa 
##  9          4.4         2.9 setosa 
## 10          4.9         3.1 setosa 
## # … with 140 more rows

Maintenant, nous souhaitons selectionner l’ensemble des varaibles de iris mais sans la colonne Species et ensuite appliquer un filtre sur les individus qui sont des caractéristiques >2 .

iris %>%
select(-Species) %>%
filter_all(all_vars(.>2))

## # A tibble: 23 x 4
##    Sepal.Length Sepal.Width Petal.Length Petal.Width
##           <dbl>       <dbl>        <dbl>       <dbl>
##  1          6.3         3.3          6           2.5
##  2          7.1         3            5.9         2.1
##  3          6.5         3            5.8         2.2
##  4          7.6         3            6.6         2.1
##  5          7.2         3.6          6.1         2.5
##  6          6.8         3            5.5         2.1
##  7          5.8         2.8          5.1         2.4
##  8          6.4         3.2          5.3         2.3
##  9          7.7         3.8          6.7         2.2
## 10          7.7         2.6          6.9         2.3
## # … with 13 more rows
…
